<?xml version="1.0" encoding="UTF-8" standalone="no"?>
<svg
   xmlns:dc="http://purl.org/dc/elements/1.1/"
   xmlns:cc="http://creativecommons.org/ns#"
   xmlns:rdf="http://www.w3.org/1999/02/22-rdf-syntax-ns#"
   xmlns:svg="http://www.w3.org/2000/svg"
   xmlns="http://www.w3.org/2000/svg"
   xmlns:sodipodi="http://sodipodi.sourceforge.net/DTD/sodipodi-0.dtd"
   xmlns:inkscape="http://www.inkscape.org/namespaces/inkscape"
   width="210mm"
   height="297mm"
   viewBox="0 0 210 297"
   version="1.1"
   id="svg8"
   inkscape:version="1.0.1 (1.0.1+r73)"
   sodipodi:docname="logo.svg">
  <defs
     id="defs2">
    <rect
       x="205.47203"
       y="212.53142"
       width="83.509264"
       height="42.319489"
       id="rect954" />
  </defs>
  <sodipodi:namedview
     id="base"
     pagecolor="#ffffff"
     bordercolor="#666666"
     borderopacity="1.0"
     inkscape:pageopacity="0.0"
     inkscape:pageshadow="2"
     inkscape:zoom="1.4"
     inkscape:cx="679.64737"
     inkscape:cy="627.82429"
     inkscape:document-units="mm"
     inkscape:current-layer="layer1"
     inkscape:document-rotation="0"
     showgrid="false"
     inkscape:window-width="1366"
     inkscape:window-height="724"
     inkscape:window-x="0"
     inkscape:window-y="0"
     inkscape:window-maximized="0" />
  <metadata
     id="metadata5">
    <rdf:RDF>
      <cc:Work
         rdf:about="">
        <dc:format>image/svg+xml</dc:format>
        <dc:type
           rdf:resource="http://purl.org/dc/dcmitype/StillImage" />
        <dc:title />
      </cc:Work>
    </rdf:RDF>
  </metadata>
  <g
     inkscape:label="Layer 1"
     inkscape:groupmode="layer"
     id="layer1">
    <rect
       style="fill:#ffcd91;stroke-width:2.04963;stroke-linecap:round;stroke-linejoin:round;paint-order:markers fill stroke"
       id="rect1419"
       width="41.992001"
       height="41.992001"
       x="159.60387"
       y="160.41867"
       ry="3.0996542"
       rx="2.6702986"
       inkscape:export-filename="/var/www/html/JCC2021/repo/jcc-2021-final-project/NovelApp/assets/icon.png"
       inkscape:export-xdpi="99"
       inkscape:export-ydpi="99" />
    <path
       id="path891"
       style="color:#000000;font-style:normal;font-variant:normal;font-weight:normal;font-stretch:normal;font-size:medium;line-height:normal;font-family:sans-serif;font-variant-ligatures:normal;font-variant-position:normal;font-variant-caps:normal;font-variant-numeric:normal;font-variant-alternates:normal;font-variant-east-asian:normal;font-feature-settings:normal;font-variation-settings:normal;text-indent:0;text-align:start;text-decoration:none;text-decoration-line:none;text-decoration-style:solid;text-decoration-color:#000000;letter-spacing:normal;word-spacing:normal;text-transform:none;writing-mode:lr-tb;direction:ltr;text-orientation:mixed;dominant-baseline:auto;baseline-shift:baseline;text-anchor:start;white-space:normal;shape-padding:0;shape-margin:0;inline-size:0;clip-rule:nonzero;display:inline;overflow:visible;visibility:visible;isolation:auto;mix-blend-mode:normal;color-interpolation:sRGB;color-interpolation-filters:linearRGB;solid-color:#000000;solid-opacity:1;vector-effect:none;fill:#000000;fill-opacity:1;fill-rule:nonzero;stroke:none;stroke-width:10.4253;stroke-linecap:round;stroke-linejoin:round;stroke-miterlimit:4;stroke-dasharray:none;stroke-dashoffset:0;stroke-opacity:1;paint-order:markers fill stroke;color-rendering:auto;image-rendering:auto;shape-rendering:auto;text-rendering:auto;enable-background:accumulate;stop-color:#000000"
       d="M 749.0918 424.25391 C 748.16081 424.26399 747.20777 424.52856 746.32422 425.10156 L 708.05664 449.91797 L 658.40625 449.91797 L 620.14453 425.10156 C 619.30313 424.55482 618.32182 424.26252 617.31836 424.25977 C 614.36708 424.25599 612.00025 426.69882 612.09961 429.64844 L 613.02148 457.04883 C 613.06419 458.3288 613.5766 459.54825 614.46094 460.47461 L 621.38086 467.70508 C 628.63094 459.76428 639.05188 454.76208 650.58594 454.76172 C 664.36152 454.76127 676.16525 462.14448 683.23633 472.89062 C 690.30756 462.14543 702.1099 454.76127 715.88477 454.76172 C 727.41731 454.76208 737.83791 459.76216 745.08789 467.70117 L 752 460.47461 C 752.88717 459.54942 753.40244 458.32986 753.44727 457.04883 L 754.37109 429.64844 C 754.47598 426.49093 751.88475 424.22367 749.0918 424.25391 z M 683.23633 515.78711 C 677.67525 524.23877 669.17818 530.59208 659.10547 532.92773 L 679.54688 553.36914 C 681.58302 555.40665 684.88573 555.40665 686.92188 553.36914 L 707.36328 532.92773 C 697.29158 530.59152 688.79719 524.23751 683.23633 515.78711 z "
       transform="scale(0.26458333)" />
    <path
       style="color:#000000;font-style:normal;font-variant:normal;font-weight:normal;font-stretch:normal;font-size:medium;line-height:normal;font-family:sans-serif;font-variant-ligatures:normal;font-variant-position:normal;font-variant-caps:normal;font-variant-numeric:normal;font-variant-alternates:normal;font-variant-east-asian:normal;font-feature-settings:normal;font-variation-settings:normal;text-indent:0;text-align:start;text-decoration:none;text-decoration-line:none;text-decoration-style:solid;text-decoration-color:#000000;letter-spacing:normal;word-spacing:normal;text-transform:none;writing-mode:lr-tb;direction:ltr;text-orientation:mixed;dominant-baseline:auto;baseline-shift:baseline;text-anchor:start;white-space:normal;shape-padding:0;shape-margin:0;inline-size:0;clip-rule:nonzero;display:inline;overflow:visible;visibility:visible;isolation:auto;mix-blend-mode:normal;color-interpolation:sRGB;color-interpolation-filters:linearRGB;solid-color:#000000;solid-opacity:1;vector-effect:none;fill:#ff0000;fill-opacity:1;fill-rule:nonzero;stroke:none;stroke-width:2.75836;stroke-linecap:round;stroke-linejoin:round;stroke-miterlimit:4;stroke-dasharray:none;stroke-dashoffset:0;stroke-opacity:1;paint-order:markers fill stroke;color-rendering:auto;image-rendering:auto;shape-rendering:auto;text-rendering:auto;enable-background:accumulate;stop-color:#000000"
       d="m 126.17163,120.42006 -10.46758,-6.78873 0.24391,7.24916 4.7749,4.98833 -3.57187,3.57188 15.99644,15.99643 15.99644,-15.99643 -3.57188,-3.57188 4.77439,-4.98833 0.24442,-7.24916 -10.46757,6.78873 z"
       id="path883" />
    <path
       style="color:#000000;font-style:normal;font-variant:normal;font-weight:normal;font-stretch:normal;font-size:medium;line-height:normal;font-family:sans-serif;font-variant-ligatures:normal;font-variant-position:normal;font-variant-caps:normal;font-variant-numeric:normal;font-variant-alternates:normal;font-variant-east-asian:normal;font-feature-settings:normal;font-variation-settings:normal;text-indent:0;text-align:start;text-decoration:none;text-decoration-line:none;text-decoration-style:solid;text-decoration-color:#000000;letter-spacing:normal;word-spacing:normal;text-transform:none;writing-mode:lr-tb;direction:ltr;text-orientation:mixed;dominant-baseline:auto;baseline-shift:baseline;text-anchor:start;white-space:normal;shape-padding:0;shape-margin:0;inline-size:0;clip-rule:nonzero;display:inline;overflow:visible;visibility:visible;isolation:auto;mix-blend-mode:normal;color-interpolation:sRGB;color-interpolation-filters:linearRGB;solid-color:#000000;solid-opacity:1;vector-effect:none;fill:#000000;fill-opacity:1;fill-rule:nonzero;stroke:none;stroke-width:2.75836;stroke-linecap:round;stroke-linejoin:round;stroke-miterlimit:4;stroke-dasharray:none;stroke-dashoffset:0;stroke-opacity:1;paint-order:markers fill stroke;color-rendering:auto;image-rendering:auto;shape-rendering:auto;text-rendering:auto;enable-background:accumulate;stop-color:#000000"
       d="m 115.70703,112.25196 a 1.3793179,1.3793179 0 0 0 -1.38086,1.42578 l 0.24414,7.25 a 1.3793179,1.3793179 0 0 0 0.38086,0.90625 l 3.8418,4.01368 -2.61719,2.61718 a 1.3793179,1.3793179 0 0 0 0,1.95118 l 15.9961,15.99609 a 1.3793179,1.3793179 0 0 0 1.95117,0 l 15.99609,-15.99609 a 1.3793179,1.3793179 0 0 0 0,-1.95118 l -2.61719,-2.61718 3.83985,-4.01368 a 1.3793179,1.3793179 0 0 0 0.38281,-0.90625 l 0.24414,-7.25 a 1.3793179,1.3793179 0 0 0 -2.12891,-1.20312 l -10.125,6.56641 h -13.13672 l -10.12304,-6.56641 a 1.3793179,1.3793179 0 0 0 -0.74805,-0.22266 z m 1.46485,3.97461 8.25,5.35156 a 1.3793179,1.3793179 0 0 0 0.75,0.22071 h 13.95117 a 1.3793179,1.3793179 0 0 0 0.75,-0.22071 l 8.25,-5.35156 -0.13672,4.08008 -4.41016,4.60938 a 1.3793179,1.3793179 0 0 0 0.0215,1.92773 l 2.5957,2.5957 -14.04688,14.04688 -14.04492,-14.04492 2.59571,-2.59766 a 1.3793179,1.3793179 0 0 0 0.0215,-1.92773 l -4.41016,-4.60938 z"
       id="path885" />
    <circle
       style="fill:#ff0000;stroke-width:0.386578;stroke-linecap:round;stroke-linejoin:round;paint-order:markers fill stroke"
       id="path833"
       cx="124.50877"
       cy="88.460686"
       r="8.1842642" />
    <circle
       style="fill:#ff0000;stroke-width:0.386578;stroke-linecap:round;stroke-linejoin:round;paint-order:markers fill stroke"
       id="circle853"
       cx="141.78615"
       cy="88.460686"
       r="8.1842642" />
    <path
       style="color:#000000;font-style:normal;font-variant:normal;font-weight:normal;font-stretch:normal;font-size:medium;line-height:normal;font-family:sans-serif;font-variant-ligatures:normal;font-variant-position:normal;font-variant-caps:normal;font-variant-numeric:normal;font-variant-alternates:normal;font-variant-east-asian:normal;font-feature-settings:normal;font-variation-settings:normal;text-indent:0;text-align:start;text-decoration:none;text-decoration-line:none;text-decoration-style:solid;text-decoration-color:#000000;letter-spacing:normal;word-spacing:normal;text-transform:none;writing-mode:lr-tb;direction:ltr;text-orientation:mixed;dominant-baseline:auto;baseline-shift:baseline;text-anchor:start;white-space:normal;shape-padding:0;shape-margin:0;inline-size:0;clip-rule:nonzero;display:inline;overflow:visible;visibility:visible;isolation:auto;mix-blend-mode:normal;color-interpolation:sRGB;color-interpolation-filters:linearRGB;solid-color:#000000;solid-opacity:1;vector-effect:none;fill:#ff0000;fill-opacity:1;fill-rule:nonzero;stroke:none;stroke-width:2.78699;stroke-linecap:round;stroke-linejoin:round;stroke-miterlimit:4;stroke-dasharray:none;stroke-dashoffset:0;stroke-opacity:1;paint-order:markers fill stroke;color-rendering:auto;image-rendering:auto;shape-rendering:auto;text-rendering:auto;enable-background:accumulate;stop-color:#000000"
       d="m 124.50868,122.60957 c -4.52004,1.5e-4 -8.18414,3.66448 -8.184,8.18451 1.5e-4,4.51984 3.66416,8.18385 8.184,8.184 4.52003,1.3e-4 8.18436,-3.66396 8.18451,-8.184 1.4e-4,-4.52024 -3.66427,-8.18465 -8.18451,-8.18451 z m 17.2775,0 c -4.52024,-1.4e-4 -8.18466,3.66427 -8.18452,8.18451 1.5e-4,4.52004 3.66448,8.18413 8.18452,8.184 4.51983,-1.5e-4 8.18385,-3.66416 8.18399,-8.184 1.4e-4,-4.52003 -3.66396,-8.18436 -8.18399,-8.18451 z"
       id="path864" />
    <path
       style="color:#000000;font-style:normal;font-variant:normal;font-weight:normal;font-stretch:normal;font-size:medium;line-height:normal;font-family:sans-serif;font-variant-ligatures:normal;font-variant-position:normal;font-variant-caps:normal;font-variant-numeric:normal;font-variant-alternates:normal;font-variant-east-asian:normal;font-feature-settings:normal;font-variation-settings:normal;text-indent:0;text-align:start;text-decoration:none;text-decoration-line:none;text-decoration-style:solid;text-decoration-color:#000000;letter-spacing:normal;word-spacing:normal;text-transform:none;writing-mode:lr-tb;direction:ltr;text-orientation:mixed;dominant-baseline:auto;baseline-shift:baseline;text-anchor:start;white-space:normal;shape-padding:0;shape-margin:0;inline-size:0;clip-rule:nonzero;display:inline;overflow:visible;visibility:visible;isolation:auto;mix-blend-mode:normal;color-interpolation:sRGB;color-interpolation-filters:linearRGB;solid-color:#000000;solid-opacity:1;vector-effect:none;fill:#000000;fill-opacity:1;fill-rule:nonzero;stroke:none;stroke-width:2.78699;stroke-linecap:round;stroke-linejoin:round;stroke-miterlimit:4;stroke-dasharray:none;stroke-dashoffset:0;stroke-opacity:1;paint-order:markers fill stroke;color-rendering:auto;image-rendering:auto;shape-rendering:auto;text-rendering:auto;enable-background:accumulate;stop-color:#000000"
       d="m 124.50868,121.21587 c -5.27314,1.7e-4 -9.57787,4.30509 -9.57771,9.57822 1.7e-4,5.27291 4.3048,9.57754 9.57771,9.57771 3.81772,1.2e-4 7.10229,-2.2714 8.63875,-5.518 1.53645,3.2466 4.82102,5.51812 8.63875,5.518 5.2729,-1.7e-4 9.57753,-4.3048 9.5777,-9.57771 1.7e-4,-5.27313 -4.30457,-9.57805 -9.5777,-9.57822 -3.81767,-1.2e-4 -7.10226,2.27152 -8.63875,5.51801 -1.5365,-3.24649 -4.82109,-5.51813 -8.63875,-5.51801 z m 0,2.78743 c 3.7671,-1.2e-4 6.79091,3.02369 6.7908,6.79079 -1.3e-4,3.76694 -3.02387,6.7904 -6.7908,6.79029 -3.76677,-1.2e-4 -6.79016,-3.02352 -6.79029,-6.79029 -1.1e-4,-3.76693 3.02335,-6.79067 6.79029,-6.79079 z m 17.2775,0 c 3.76693,1.2e-4 6.79039,3.02386 6.79028,6.79079 -1.2e-4,3.76677 -3.02352,6.79017 -6.79028,6.79029 -3.76694,1.1e-4 -6.79068,-3.02335 -6.7908,-6.79029 -1.2e-4,-3.7671 3.02369,-6.79091 6.7908,-6.79079 z"
       id="path866" />
    <path
       style="color:#000000;font-style:normal;font-variant:normal;font-weight:normal;font-stretch:normal;font-size:medium;line-height:normal;font-family:sans-serif;font-variant-ligatures:normal;font-variant-position:normal;font-variant-caps:normal;font-variant-numeric:normal;font-variant-alternates:normal;font-variant-east-asian:normal;font-feature-settings:normal;font-variation-settings:normal;text-indent:0;text-align:start;text-decoration:none;text-decoration-line:none;text-decoration-style:solid;text-decoration-color:#000000;letter-spacing:normal;word-spacing:normal;text-transform:none;writing-mode:lr-tb;direction:ltr;text-orientation:mixed;dominant-baseline:auto;baseline-shift:baseline;text-anchor:start;white-space:normal;shape-padding:0;shape-margin:0;inline-size:0;clip-rule:nonzero;display:inline;overflow:visible;visibility:visible;isolation:auto;mix-blend-mode:normal;color-interpolation:sRGB;color-interpolation-filters:linearRGB;solid-color:#000000;solid-opacity:1;vector-effect:none;fill:#000000;fill-opacity:1;fill-rule:nonzero;stroke:none;stroke-width:2.78699;stroke-linecap:round;stroke-linejoin:round;stroke-miterlimit:4;stroke-dasharray:none;stroke-dashoffset:0;stroke-opacity:1;paint-order:markers fill stroke;color-rendering:auto;image-rendering:auto;shape-rendering:auto;text-rendering:auto;enable-background:accumulate;stop-color:#000000"
       d="m 172.13371,121.21587 c -5.27314,1.7e-4 -9.57787,4.30509 -9.57771,9.57822 1.7e-4,5.27291 4.3048,9.57754 9.57771,9.57771 3.81772,1.2e-4 7.10229,-2.2714 8.63875,-5.518 1.53645,3.2466 4.82102,5.51812 8.63875,5.518 5.2729,-1.7e-4 9.57753,-4.3048 9.5777,-9.57771 1.7e-4,-5.27313 -4.30457,-9.57805 -9.5777,-9.57822 -3.81767,-1.2e-4 -7.10226,2.27152 -8.63875,5.51801 -1.5365,-3.24649 -4.82109,-5.51813 -8.63875,-5.51801 z m 0,2.78743 c 3.7671,-1.2e-4 6.79091,3.02369 6.7908,6.79079 -1.3e-4,3.76694 -3.02387,6.7904 -6.7908,6.79029 -3.76677,-1.2e-4 -6.79016,-3.02352 -6.79029,-6.79029 -1.1e-4,-3.76693 3.02335,-6.79067 6.79029,-6.79079 z m 17.2775,0 c 3.76693,1.2e-4 6.79039,3.02386 6.79028,6.79079 -1.2e-4,3.76677 -3.02352,6.79017 -6.79028,6.79029 -3.76694,1.1e-4 -6.79068,-3.02335 -6.7908,-6.79029 -1.2e-4,-3.7671 3.02369,-6.79091 6.7908,-6.79079 z"
       id="path904" />
    <path
       id="path945"
       style="color:#000000;font-style:normal;font-variant:normal;font-weight:normal;font-stretch:normal;font-size:medium;line-height:normal;font-family:sans-serif;font-variant-ligatures:normal;font-variant-position:normal;font-variant-caps:normal;font-variant-numeric:normal;font-variant-alternates:normal;font-variant-east-asian:normal;font-feature-settings:normal;font-variation-settings:normal;text-indent:0;text-align:start;text-decoration:none;text-decoration-line:none;text-decoration-style:solid;text-decoration-color:#000000;letter-spacing:normal;word-spacing:normal;text-transform:none;writing-mode:lr-tb;direction:ltr;text-orientation:mixed;dominant-baseline:auto;baseline-shift:baseline;text-anchor:start;white-space:normal;shape-padding:0;shape-margin:0;inline-size:0;clip-rule:nonzero;display:inline;overflow:visible;visibility:visible;isolation:auto;mix-blend-mode:normal;color-interpolation:sRGB;color-interpolation-filters:linearRGB;solid-color:#000000;solid-opacity:1;vector-effect:none;fill:#000000;fill-opacity:1;fill-rule:nonzero;stroke:none;stroke-width:2.75836;stroke-linecap:round;stroke-linejoin:round;stroke-miterlimit:4;stroke-dasharray:none;stroke-dashoffset:0;stroke-opacity:1;paint-order:markers fill stroke;color-rendering:auto;image-rendering:auto;shape-rendering:auto;text-rendering:auto;enable-background:accumulate;stop-color:#000000"
       d="m 198.1972,165.16721 c -0.24632,0.003 -0.49848,0.0727 -0.73225,0.22427 l -10.12497,6.56601 h -13.13666 l -10.12342,-6.56601 c -0.22262,-0.14466 -0.48225,-0.22199 -0.74775,-0.22272 -0.78086,-0.001 -1.40709,0.64533 -1.3808,1.42575 l 0.24391,7.24969 c 0.0113,0.33866 0.14688,0.6613 0.38086,0.9064 l 1.8309,1.91306 c 1.91825,-2.101 4.67545,-3.4245 7.72717,-3.42459 3.64479,-1.2e-4 6.76786,1.95335 8.63875,4.7966 1.87093,-2.84299 4.99364,-4.79672 8.63824,-4.7966 3.05131,9e-5 5.80843,1.32303 7.72666,3.42356 l 1.82882,-1.91203 c 0.23473,-0.24479 0.37107,-0.56746 0.38293,-0.9064 l 0.24443,-7.24969 c 0.0277,-0.83542 -0.65785,-1.4353 -1.39682,-1.4273 z m -26.06352,8.96534 c -5.27314,1.7e-4 -9.57787,4.3051 -9.57771,9.57823 1.7e-4,5.27291 4.3048,9.57754 9.57771,9.57771 3.81772,1.2e-4 7.10229,-2.27141 8.63875,-5.51801 1.53645,3.2466 4.82102,5.51813 8.63875,5.51801 5.2729,-1.7e-4 9.57753,-4.3048 9.5777,-9.57771 1.8e-4,-5.27313 -4.30457,-9.57806 -9.5777,-9.57823 -3.81767,-1.2e-4 -7.10226,2.27152 -8.63875,5.51801 -1.5365,-3.24649 -4.82109,-5.51813 -8.63875,-5.51801 z m 0,2.78743 c 3.7671,-1.2e-4 6.79091,3.0237 6.7908,6.7908 -1.3e-4,3.76694 -3.02387,6.79039 -6.7908,6.79028 -3.76677,-1.2e-4 -6.79016,-3.02351 -6.79029,-6.79028 -1.1e-4,-3.76693 3.02335,-6.79068 6.79029,-6.7908 z m 17.2775,0 c 3.76692,1.2e-4 6.79039,3.02387 6.79028,6.7908 -1.2e-4,3.76677 -3.02352,6.79016 -6.79028,6.79028 -3.76695,1.1e-4 -6.79069,-3.02334 -6.7908,-6.79028 -1.2e-4,-3.7671 3.02369,-6.79092 6.7908,-6.7908 z m -8.63824,12.46539 c -1.47137,2.23617 -3.71955,3.91715 -6.38462,4.53512 l 5.40846,5.40846 c 0.53872,0.53909 1.41257,0.53909 1.9513,0 l 5.40845,-5.40846 c -2.6648,-0.61812 -4.91228,-2.29929 -6.38359,-4.53512 z" />
    <path
       id="path950"
       style="color:#000000;font-style:normal;font-variant:normal;font-weight:normal;font-stretch:normal;font-size:medium;line-height:normal;font-family:sans-serif;font-variant-ligatures:normal;font-variant-position:normal;font-variant-caps:normal;font-variant-numeric:normal;font-variant-alternates:normal;font-variant-east-asian:normal;font-feature-settings:normal;font-variation-settings:normal;text-indent:0;text-align:start;text-decoration:none;text-decoration-line:none;text-decoration-style:solid;text-decoration-color:#000000;letter-spacing:normal;word-spacing:normal;text-transform:none;writing-mode:lr-tb;direction:ltr;text-orientation:mixed;dominant-baseline:auto;baseline-shift:baseline;text-anchor:start;white-space:normal;shape-padding:0;shape-margin:0;inline-size:0;clip-rule:nonzero;display:inline;overflow:visible;visibility:visible;isolation:auto;mix-blend-mode:normal;color-interpolation:sRGB;color-interpolation-filters:linearRGB;solid-color:#000000;solid-opacity:1;vector-effect:none;fill:#000000;fill-opacity:1;fill-rule:nonzero;stroke:none;stroke-width:2.75836;stroke-linecap:round;stroke-linejoin:round;stroke-miterlimit:4;stroke-dasharray:none;stroke-dashoffset:0;stroke-opacity:1;paint-order:markers fill stroke;color-rendering:auto;image-rendering:auto;shape-rendering:auto;text-rendering:auto;enable-background:accumulate;stop-color:#000000"
       d="m 198.1972,212.79224 c -0.24632,0.003 -0.49848,0.0727 -0.73225,0.22427 l -10.12497,6.56601 h -13.13666 l -10.12342,-6.56601 c -0.22262,-0.14466 -0.48225,-0.22199 -0.74775,-0.22272 -0.78086,-0.001 -1.40709,0.64533 -1.3808,1.42575 l 0.24391,7.24969 c 0.0113,0.33866 0.14688,0.6613 0.38086,0.9064 l 1.8309,1.91306 c 1.91825,-2.101 4.67545,-3.4245 7.72717,-3.42459 3.64479,-1.2e-4 6.76786,1.95335 8.63875,4.7966 1.87093,-2.84299 4.99364,-4.79672 8.63824,-4.7966 3.05131,9e-5 5.80843,1.32303 7.72666,3.42356 l 1.82882,-1.91203 c 0.23473,-0.24479 0.37107,-0.56746 0.38293,-0.9064 l 0.24443,-7.24969 c 0.0277,-0.83542 -0.65785,-1.4353 -1.39682,-1.4273 z m -26.06352,8.96534 c -5.27314,1.7e-4 -9.57787,4.3051 -9.57771,9.57823 1.7e-4,5.27291 4.3048,9.57754 9.57771,9.57771 3.81772,1.2e-4 7.10229,-2.27141 8.63875,-5.51801 1.53645,3.2466 4.82102,5.51813 8.63875,5.51801 5.2729,-1.7e-4 9.57753,-4.3048 9.5777,-9.57771 1.8e-4,-5.27313 -4.30457,-9.57806 -9.5777,-9.57823 -3.81767,-1.2e-4 -7.10226,2.27152 -8.63875,5.51801 -1.5365,-3.24649 -4.82109,-5.51813 -8.63875,-5.51801 z m 0,2.78743 c 3.7671,-1.2e-4 6.79091,3.0237 6.7908,6.7908 -1.3e-4,3.76694 -3.02387,6.79039 -6.7908,6.79028 -3.76677,-1.2e-4 -6.79016,-3.02351 -6.79029,-6.79028 -1.1e-4,-3.76693 3.02335,-6.79068 6.79029,-6.7908 z m 17.2775,0 c 3.76692,1.2e-4 6.79039,3.02387 6.79028,6.7908 -1.2e-4,3.76677 -3.02352,6.79016 -6.79028,6.79028 -3.76695,1.1e-4 -6.79069,-3.02334 -6.7908,-6.79028 -1.2e-4,-3.7671 3.02369,-6.79092 6.7908,-6.7908 z m -8.63824,12.46539 c -1.47137,2.23617 -3.71955,3.91715 -6.38462,4.53512 l 5.40846,5.40846 c 0.53872,0.53909 1.41257,0.53909 1.9513,0 l 5.40845,-5.40846 c -2.6648,-0.61812 -4.91228,-2.29929 -6.38359,-4.53512 z" />
    <text
       xml:space="preserve"
       id="text952"
       style="font-style:normal;font-weight:normal;font-size:10.5833px;line-height:0.75;font-family:sans-serif;word-spacing:-0.00264583px;white-space:pre;shape-inside:url(#rect954);fill:#000000;fill-opacity:1;stroke:none;"
       transform="matrix(1.7033354,0,0,1.7033354,-146.87165,-146.99538)"><tspan
         x="205.47266"
         y="219.24916"><tspan
           dx="0 0 0 0 0.0026467836"
           style="font-style:normal;font-variant:normal;font-weight:bold;font-stretch:normal;font-family:Dyuthi;-inkscape-font-specification:'Dyuthi Bold'">Baca
</tspan></tspan><tspan
         x="205.47266"
         y="227.8171"><tspan
           style="font-style:normal;font-variant:normal;font-weight:bold;font-stretch:normal;font-family:Dyuthi;-inkscape-font-specification:'Dyuthi Bold'">Novel</tspan></tspan></text>
  </g>
</svg>
